<svg xmlns="http://www.w3.org/2000/svg" width="7.991" height="14.779" viewBox="0 0 7.991 14.779">
  <g id="facebook-logo" opacity="0.489">
    <path id="Path_96" data-name="Path 96" d="M29.767,0,27.85,0a3.366,3.366,0,0,0-3.545,3.637V5.314H22.378a.3.3,0,0,0-.3.3v2.43a.3.3,0,0,0,.3.3h1.927v6.131a.3.3,0,0,0,.3.3h2.514a.3.3,0,0,0,.3-.3V8.347h2.253a.3.3,0,0,0,.3-.3V5.616a.3.3,0,0,0-.3-.3H27.422V3.893c0-.683.163-1.03,1.053-1.03h1.291a.3.3,0,0,0,.3-.3V.3A.3.3,0,0,0,29.767,0Z" transform="translate(-22.077)"/>
  </g>
</svg>
