<svg xmlns="http://www.w3.org/2000/svg" width="13.511" height="13.481" viewBox="0 0 13.511 13.481">
  <g id="XMLID_801_" opacity="0.489">
    <path id="XMLID_802_" d="M7.857,99.73H5.145a.218.218,0,0,0-.218.218v8.713a.218.218,0,0,0,.218.218H7.857a.218.218,0,0,0,.218-.218V99.948A.218.218,0,0,0,7.857,99.73Z" transform="translate(-4.712 -95.398)"/>
    <path id="XMLID_803_" d="M1.79.341A1.788,1.788,0,1,0,3.578,2.129,1.791,1.791,0,0,0,1.79.341Z" transform="translate(0 -0.341)"/>
    <path id="XMLID_804_" d="M111.592,94.761a3.186,3.186,0,0,0-2.383,1V95.2a.218.218,0,0,0-.218-.218h-2.6a.218.218,0,0,0-.218.218v8.713a.218.218,0,0,0,.218.218H109.1a.218.218,0,0,0,.218-.218V99.6c0-1.453.395-2.019,1.407-2.019,1.1,0,1.191.907,1.191,2.093v4.236a.218.218,0,0,0,.218.218h2.707a.218.218,0,0,0,.218-.218V99.129C115.059,96.969,114.647,94.761,111.592,94.761Z" transform="translate(-101.548 -90.646)"/>
  </g>
</svg>
