<svg xmlns="http://www.w3.org/2000/svg" width="8.219" height="12.891" viewBox="0 0 8.219 12.891">
  <path id="Path_1003" data-name="Path 1003" d="M3617.551,1389.5l2.272,2.608,2.787,3.2,1.244-1.443.627-.728,3.138-3.638" transform="translate(-1388.084 3629.03) rotate(-90)" fill="none" stroke="#25a9de" stroke-linecap="round" stroke-linejoin="round" stroke-width="2"/>
</svg>
