<svg xmlns="http://www.w3.org/2000/svg" width="62" height="62" viewBox="0 0 62 62">
  <g id="Group_834" data-name="Group 834" transform="translate(-640 -562)">
    <path id="Polygon_8" data-name="Polygon 8" d="M7.5,0,15,11H0Z" transform="translate(677 585) rotate(90)" fill="#fff"/>
    <g id="Ellipse_159" data-name="Ellipse 159" transform="translate(640 562)" fill="none" stroke="#25a9de" stroke-width="1" opacity="0.744">
      <circle cx="31" cy="31" r="31" stroke="none"/>
      <circle cx="31" cy="31" r="30.5" fill="none"/>
    </g>
  </g>
</svg>
