<svg xmlns="http://www.w3.org/2000/svg" width="79.09" height="79.37" viewBox="0 0 79.09 79.37">
  <g id="Group_772" data-name="Group 772" transform="translate(-708 839)">
    <g id="Group_763" data-name="Group 763" transform="translate(708 -839)">
      <path id="Path_1428" data-name="Path 1428" d="M39.44,35.69a1,1,0,0,1-1-1V24.39a1,1,0,0,1,2,0V34.7A.994.994,0,0,1,39.44,35.69Z" fill="#17368c"/>
    </g>
    <g id="Group_764" data-name="Group 764" transform="translate(708 -839)">
      <path id="Path_1429" data-name="Path 1429" d="M50.2,61.52a1.006,1.006,0,0,1-.95-.69c-7.33-22.21,2.95-31.65,3.39-32.04a1,1,0,1,1,1.33,1.49h0a17.22,17.22,0,0,0-4.02,7.01c-1.45,4.42-2.41,11.98,1.2,22.91a1,1,0,0,1-.64,1.26A.686.686,0,0,1,50.2,61.52Z" fill="#bababa"/>
    </g>
    <g id="Group_765" data-name="Group 765" transform="translate(708 -839)">
      <path id="Path_1430" data-name="Path 1430" d="M37.69,64.5a33.436,33.436,0,0,1-7.12-.77,30.672,30.672,0,0,1-10.44-4.28.994.994,0,0,1-.23-1.39,1,1,0,0,1,1.39-.24c.15.11,15.14,10.45,33.28-.05a1,1,0,1,1,1.01,1.73A35.342,35.342,0,0,1,37.69,64.5Z" fill="#bababa"/>
    </g>
    <g id="Group_766" data-name="Group 766" transform="translate(708 -839)">
      <path id="Path_1431" data-name="Path 1431" d="M48.46,39.91H28.14a1,1,0,1,1,0-2H48.46a1,1,0,0,1,0,2Z" fill="#bababa"/>
    </g>
    <g id="Group_767" data-name="Group 767" transform="translate(708 -839)">
      <path id="Path_1432" data-name="Path 1432" d="M32.79,44.78a1,1,0,0,1-1-.98l-.11-4.88a1,1,0,0,1,.98-1.02,1.009,1.009,0,0,1,1.02.98l.11,4.88a1,1,0,0,1-.98,1.02Z" fill="#bababa"/>
    </g>
    <g id="Group_768" data-name="Group 768" transform="translate(708 -839)">
      <path id="Path_1433" data-name="Path 1433" d="M25.92,61.52a1.005,1.005,0,0,1-.74-1.68c2.33-2.53,1.96-8.5,1.95-8.56a1,1,0,1,1,2-.14c.02.28.44,6.89-2.48,10.06A.985.985,0,0,1,25.92,61.52Z" fill="#bababa"/>
    </g>
    <g id="Group_769" data-name="Group 769" transform="translate(708 -839)">
      <path id="Path_1434" data-name="Path 1434" d="M49,52.21H22.04V49.07a6.3,6.3,0,0,1,6.29-6.29H49Zm-24.96-2H47V44.78H28.33a4.3,4.3,0,0,0-4.29,4.29Z" fill="#2ddcab"/>
    </g>
    <g id="Group_770" data-name="Group 770" transform="translate(708 -839)">
      <path id="Path_1435" data-name="Path 1435" d="M35.55,79.37a4.9,4.9,0,0,1-4.89-4.89,1,1,0,0,1,2,0,2.89,2.89,0,1,0,5.78,0V68.5a1,1,0,0,1,2,0v5.97A4.9,4.9,0,0,1,35.55,79.37Z" fill="#15348c"/>
    </g>
    <path id="Path_1427" data-name="Path 1427" d="M8.58,25.38a8.712,8.712,0,0,1,7.87,4.98,8.716,8.716,0,0,1,15.52-.45,8.716,8.716,0,0,1,15.52.45,8.708,8.708,0,0,1,15.24-.91,8.716,8.716,0,0,1,16.02,1.8h.34C77.45,13.76,60.38,0,39.55,0S1.65,13.76,0,31.26H.34A8.73,8.73,0,0,1,8.58,25.38Z" transform="translate(708 -839)" fill="#7395ee"/>
  </g>
</svg>
