<svg xmlns="http://www.w3.org/2000/svg" width="62" height="62" viewBox="0 0 62 62">
  <g id="Group_448" data-name="Group 448" transform="translate(-1111 -1898)">
    <g id="Ellipse_129" data-name="Ellipse 129" transform="translate(1111 1898)" fill="none" stroke="#061886" stroke-width="2">
      <circle cx="31" cy="31" r="31" stroke="none"/>
      <circle cx="31" cy="31" r="30" fill="none"/>
    </g>
    <path id="Path_944" data-name="Path 944" d="M1865.97,3096.017v22.051a4.071,4.071,0,0,1-4.092,3.68c-.025.092-3.374-.479-4.31-3.059-.029.106,0-2.759,0-2.759s.627-1.218,1.6-1.034" transform="translate(-724.462 -1172.648)" fill="none" stroke="#25a9de" stroke-linecap="round" stroke-linejoin="round" stroke-width="2"/>
    <line id="Line_35" data-name="Line 35" y2="7.515" transform="translate(1156.561 1937.611)" fill="none" stroke="#25a9de" stroke-linecap="round" stroke-width="2"/>
    <line id="Line_36" data-name="Line 36" x2="7.202" transform="translate(1153.116 1941.682)" fill="none" stroke="#25a9de" stroke-linecap="round" stroke-width="2"/>
    <path id="Path_946" data-name="Path 946" d="M1812.956,3065.879s7.671-12.01,14.71,0c.1.209,6.909-12.051,15.027,0-.124-.171,5.792-11.71,14.233-1.2-.3-.221-2.4-17.621-20.882-19.486C1835.907,3045.275,1815.765,3044.314,1812.956,3065.879Z" transform="translate(-693.828 -1137.737)" fill="none" stroke="#25a9de" stroke-linecap="round" stroke-linejoin="round" stroke-width="2"/>
  </g>
</svg>
