<svg xmlns="http://www.w3.org/2000/svg" width="556.614" height="478.128" viewBox="0 0 556.614 478.128">
  <g id="Group_819" data-name="Group 819" transform="translate(-1016.171 -199.118)">
    <path id="Path_937" data-name="Path 937" d="M2767.569,3182.974h-85.951l-212.45-53.481v62.391l64.435,32.575-32.771,35.1S2249.225,3158.5,2240,3162.917c-63.138,19.95-3.665,55.183-3.665,55.183l277.727,136.993,167.557-41.463h85.951Z" transform="translate(-1194.784 -2677.847)" fill="#f4dabd"/>
    <path id="Path_938" data-name="Path 938" d="M2331.7,3332.427H2291.58V3126.1l119.19-78.3,120.708,78.3v176.61" transform="translate(-1088.79 -2845.687)" fill="none" stroke="#25a9de" stroke-linecap="round" stroke-linejoin="round" stroke-width="6"/>
    <rect id="Rectangle_165" data-name="Rectangle 165" width="88.255" height="105.906" transform="translate(1279.421 319.884)" fill="#efbd7a"/>
    <line id="Line_31" data-name="Line 31" x2="88.587" transform="translate(1278.904 274.498)" fill="none" stroke="#25a9de" stroke-width="6"/>
    <line id="Line_33" data-name="Line 33" y2="116.08" transform="translate(1138.385 375.302)" fill="none" stroke="#25a9de" stroke-linecap="round" stroke-width="6"/>
    <path id="Polygon_5" data-name="Polygon 5" d="M38.277,25.744a6,6,0,0,1,11.7,0L86.589,186.832a6,6,0,0,1-5.851,7.33H7.517a6,6,0,0,1-5.851-7.33Z" transform="translate(1094.085 213.978)" fill="#2fd"/>
    <line id="Line_30" data-name="Line 30" y2="144.453" transform="translate(1486.906 502.385)" fill="none" stroke="#102292" stroke-width="6"/>
  </g>
</svg>
