<svg xmlns="http://www.w3.org/2000/svg" xmlns:xlink="http://www.w3.org/1999/xlink" width="105" height="105" viewBox="0 0 105 105">
  <defs>
    <linearGradient id="linear-gradient" x1="0.5" x2="0.5" y2="0.563" gradientUnits="objectBoundingBox">
      <stop offset="0" stop-color="#25a9de"/>
      <stop offset="1" stop-color="#25a9de" stop-opacity="0"/>
    </linearGradient>
  </defs>
  <g id="Group_826" data-name="Group 826" transform="translate(-494 -3040)">
    <circle id="Ellipse_133" data-name="Ellipse 133" cx="52.5" cy="52.5" r="52.5" transform="translate(494 3040)" fill="#061886"/>
    <circle id="Ellipse_150" data-name="Ellipse 150" cx="52.5" cy="52.5" r="52.5" transform="translate(494 3040)" opacity="0.68" fill="url(#linear-gradient)"/>
    <g id="Group_484" data-name="Group 484" transform="translate(17691 -5168)">
      <g id="Path_998" data-name="Path 998" transform="matrix(0.985, -0.174, 0.174, 0.985, -17170.322, 8249.505)" fill="none">
        <path d="M2.981-.048,48.146.03a3.028,3.028,0,0,1,3.035,3.006l.062,35.276a3,3,0,0,1-3.024,3L3.053,41.23A3.028,3.028,0,0,1,.018,38.224L-.044,2.948A3,3,0,0,1,2.981-.048Z" stroke="none"/>
        <path d="M 2.975433349609375 1.951972961425781 C 2.696693420410156 1.951972961425781 2.436721801757813 2.058612823486328 2.243423461914063 2.252262115478516 C 2.135951995849609 2.359912872314453 1.955753326416016 2.592960357666016 1.956371307373047 2.944171905517578 L 2.017932891845703 38.2205924987793 C 2.018901824951172 38.77633285522461 2.484710693359375 39.22926330566406 3.056320190429688 39.23024368286133 L 48.21779251098633 39.30831146240234 L 48.22319030761719 39.30831146240234 C 48.50193023681641 39.30831146240234 48.76189041137695 39.20166397094727 48.9552001953125 39.00802230834961 C 49.06267166137695 38.90036392211914 49.24287033081055 38.66732025146484 49.24225234985352 38.31611251831055 L 49.18069076538086 3.039691925048828 C 49.17972183227539 2.483951568603516 48.71391296386719 2.031021118164063 48.14230346679688 2.030040740966797 L 2.980831146240234 1.951972961425781 L 2.975433349609375 1.951972961425781 M 2.975433349609375 -0.04803085327148438 C 2.977272033691406 -0.04803085327148438 2.978992462158203 -0.04803085327148438 2.980831146240234 -0.04802703857421875 L 48.1457633972168 0.03004074096679688 C 49.81901168823242 0.03293228149414063 51.17780303955078 1.378833770751953 51.18069076538086 3.036201477050781 L 51.24225234985352 38.3126220703125 C 51.24514007568359 39.96817016601563 49.89389801025391 41.30831527709961 48.22319030761719 41.30831527709961 C 48.22135162353516 41.30831527709961 48.21963119506836 41.30831527709961 48.21779251098633 41.30831146240234 L 3.052860260009766 41.23024368286133 C 1.379611968994141 41.22735214233398 0.02082061767578125 39.88145065307617 0.01793289184570313 38.22408294677734 L -0.04362869262695313 2.947662353515625 C -0.04651641845703125 1.2921142578125 1.304714202880859 -0.04803085327148438 2.975433349609375 -0.04803085327148438 Z" stroke="none" fill="#fff"/>
      </g>
      <path id="Path_999" data-name="Path 999" d="M2.981-.048,48.146.03a3.028,3.028,0,0,1,3.035,3.006l0,1.3L-.041,4.247l0-1.3A3,3,0,0,1,2.981-.048Z" transform="matrix(0.985, -0.174, 0.174, 0.985, -17170.322, 8249.505)" fill="#25a9de"/>
      <line id="Line_7" data-name="Line 7" x2="39.069" y2="0.068" transform="matrix(0.985, -0.174, 0.174, 0.985, -17163.387, 8256.533)" fill="none" stroke="#fff" stroke-width="2"/>
      <line id="Line_8" data-name="Line 8" x2="39.069" y2="0.068" transform="matrix(0.985, -0.174, 0.174, 0.985, -17162.332, 8262.46)" fill="none" stroke="#fff" stroke-width="2"/>
      <line id="Line_9" data-name="Line 9" x2="39.069" y2="0.068" transform="matrix(0.985, -0.174, 0.174, 0.985, -17159.014, 8281.086)" fill="none" stroke="#fff" stroke-width="2"/>
      <line id="Line_10" data-name="Line 10" x2="24.407" y2="0.042" transform="matrix(0.985, -0.174, 0.174, 0.985, -17149.846, 8274.248)" fill="none" stroke="#fff" stroke-linecap="round" stroke-width="2"/>
      <line id="Line_11" data-name="Line 11" x2="24.407" y2="0.042" transform="matrix(0.985, -0.174, 0.174, 0.985, -17151.053, 8267.475)" fill="none" stroke="#fff" stroke-linecap="round" stroke-width="2"/>
      <g id="Path_1000" data-name="Path 1000" transform="matrix(0.985, -0.174, 0.174, 0.985, -17161.033, 8267.073)" fill="none">
        <path d="M2.136-.034a2.15,2.15,0,1,1,.008,4.3,2.15,2.15,0,1,1-.008-4.3Z" stroke="none"/>
        <path d="M 2.131645202636719 1.965593099594116 C 2.082245349884033 1.965593099594116 2.040855407714844 1.981963157653809 2.008625268936157 2.01425313949585 C 1.968645334243774 2.054293155670166 1.968715190887451 2.093502998352051 1.968745231628418 2.10826301574707 C 1.968895196914673 2.193283081054688 2.050275325775146 2.265253067016602 2.146885395050049 2.265413045883179 C 2.196285247802734 2.265413045883179 2.237675189971924 2.249042987823486 2.26990532875061 2.216753005981445 C 2.309885263442993 2.176712989807129 2.309815406799316 2.137503147125244 2.30978536605835 2.122743129730225 C 2.309635162353516 2.037723064422607 2.228255271911621 1.965753078460693 2.135515213012695 1.965593099594116 L 2.131645202636719 1.965593099594116 M 2.131649017333984 -0.03441047668457031 C 2.132965564727783 -0.03441047668457031 2.134198427200317 -0.0344090461730957 2.135515213012695 -0.03440713882446289 C 3.334255218505859 -0.03233671188354492 4.30771541595459 0.9318931102752686 4.30978536605835 2.119253158569336 C 4.311852931976318 3.30530858039856 3.343811750411987 4.265416622161865 2.146881580352783 4.265416622161865 C 2.145565032958984 4.265416622161865 2.14433217048645 4.265415191650391 2.143015384674072 4.265413284301758 C 0.9442753791809082 4.26334285736084 -0.02918481826782227 3.299113035202026 -0.03125476837158203 2.111752986907959 C -0.03332233428955078 0.9256975650787354 0.9347188472747803 -0.03441047668457031 2.131649017333984 -0.03441047668457031 Z" stroke="none" fill="#fff"/>
      </g>
      <g id="Path_1001" data-name="Path 1001" transform="matrix(0.985, -0.174, 0.174, 0.985, -17159.828, 8273.847)" fill="none">
        <path d="M2.136-.034a2.15,2.15,0,1,1,.008,4.3,2.15,2.15,0,1,1-.008-4.3Z" stroke="none"/>
        <path d="M 2.131645202636719 1.965593099594116 C 2.082245349884033 1.965593099594116 2.040855407714844 1.981963157653809 2.008625268936157 2.01425313949585 C 1.968645334243774 2.054293155670166 1.968715190887451 2.093502998352051 1.968745231628418 2.10826301574707 C 1.968895196914673 2.193283081054688 2.050275325775146 2.265253067016602 2.146885395050049 2.265413045883179 C 2.196285247802734 2.265413045883179 2.237675189971924 2.249042987823486 2.26990532875061 2.216753005981445 C 2.309885263442993 2.176712989807129 2.309815406799316 2.137503147125244 2.30978536605835 2.122743129730225 C 2.309635162353516 2.037723064422607 2.228255271911621 1.965753078460693 2.135515213012695 1.965593099594116 L 2.131645202636719 1.965593099594116 M 2.131649017333984 -0.03441047668457031 C 2.132965564727783 -0.03441047668457031 2.134198427200317 -0.0344090461730957 2.135515213012695 -0.03440713882446289 C 3.334255218505859 -0.03233671188354492 4.30771541595459 0.9318931102752686 4.30978536605835 2.119253158569336 C 4.311852931976318 3.30530858039856 3.343811750411987 4.265416622161865 2.146881580352783 4.265416622161865 C 2.145565032958984 4.265416622161865 2.14433217048645 4.265415191650391 2.143015384674072 4.265413284301758 C 0.9442753791809082 4.26334285736084 -0.02918481826782227 3.299113035202026 -0.03125476837158203 2.111752986907959 C -0.03332233428955078 0.9256975650787354 0.9347188472747803 -0.03441047668457031 2.131649017333984 -0.03441047668457031 Z" stroke="none" fill="#fff"/>
      </g>
    </g>
  </g>
</svg>
