<svg xmlns="http://www.w3.org/2000/svg" width="1234.407" height="980.777" viewBox="0 0 1234.407 980.777">
  <path id="Path_1414" data-name="Path 1414" d="M1721.609-1519.574c-1.75,3.387-144.156,76.293-46.266,183.777,28.828,28.336,141.949,13.4,145.234,107.672,2.484,2.984-19.285,152.492,103.422,182.281,278.105,17.664,119.547,240.078,425.359,213.641-.547,2.125,198.672,11.453,223.016,133.891,3.094,8.328,54.1,181.312,302.156,155.359,2.008.008,0-976.621,0-976.621S1723.359-1522.961,1721.609-1519.574Z" transform="translate(-1641.017 1521.079)" fill="#e9f4fc" opacity="0.434"/>
</svg>
